run/adder_wave.vcd
$date
	Wed Oct 29 21:21:00 2025
$end
$version
	QuestaSim Version 10.7c
$end
$timescale
	1ps
$end

$scope module tb_top $end
$var reg 1 ! clk $end

$scope module dut $end
$var parameter 32 " WIDTH $end
$var wire 1 # clk $end
$var wire 1 $ rst_n $end
$var wire 1 % in_valid $end
$var reg 1 & in_ready $end
$var wire 1 ' a [7] $end
$var wire 1 ( a [6] $end
$var wire 1 ) a [5] $end
$var wire 1 * a [4] $end
$var wire 1 + a [3] $end
$var wire 1 , a [2] $end
$var wire 1 - a [1] $end
$var wire 1 . a [0] $end
$var wire 1 / b [7] $end
$var wire 1 0 b [6] $end
$var wire 1 1 b [5] $end
$var wire 1 2 b [4] $end
$var wire 1 3 b [3] $end
$var wire 1 4 b [2] $end
$var wire 1 5 b [1] $end
$var wire 1 6 b [0] $end
$var reg 1 7 out_valid $end
$var wire 1 8 out_ready $end
$var reg 8 9 sum [7:0] $end
$var reg 2 : state [1:0] $end
$var reg 2 ; next_state [1:0] $end
$upscope $end

$scope module adder_vif $end
$var wire 1 < clk $end
$var reg 1 = rst_n $end
$var reg 1 > in_valid $end
$var reg 1 ? in_ready $end
$var reg 8 @ a [7:0] $end
$var reg 8 A b [7:0] $end
$var reg 1 B out_valid $end
$var reg 1 C out_ready $end
$var reg 8 D sum [7:0] $end
$upscope $end
$upscope $end
$enddefinitions $end
#0
$dumpvars
0!
0=
0>
1?
b0 @
b0 A
0B
xC
b0 D
1&
07
b0 9
b0 :
b0 ;
b1000 "
0<
0#
0$
0%
0.
0-
0,
0+
0*
0)
0(
0'
06
05
04
03
02
01
00
0/
x8
$end
#5000
1!
1<
1#
#10000
0!
0<
0#
#15000
1!
1<
1#
1=
1$
#20000
0!
0<
0#
#25000
1!
1<
1#
#30000
0!
0<
0#
#35000
1!
1<
1#
1>
b11110001 @
b1011 A
16
15
13
1.
1*
1)
1(
1'
1%
0&
1&
b1 ;
#40000
0!
0<
0#
#45000
1!
1<
1#
b1 :
0>
0%
0&
b10 ;
0?
#50000
0!
0<
0#
#55000
1!
1<
1#
b10 :
b11111100 9
b11111100 D
17
1B
#60000
0!
0<
0#
#65000
1!
1<
1#
1C
18
07
17
b11 ;
#70000
0!
0<
0#
#75000
1!
1<
1#
b11 :
0C
08
07
b0 ;
0B
#80000
0!
0<
0#
#85000
1!
1<
1#
b0 :
b0 9
b0 D
1&
1?
#90000
0!
0<
0#
#95000
1!
1<
1#
1>
b1011011 @
b1011100 A
06
05
14
12
10
1-
1+
0)
0'
1%
0&
1&
b1 ;
#100000
0!
0<
0#
#105000
1!
1<
1#
b1 :
0>
0%
0&
b10 ;
0?
#110000
0!
0<
0#
#115000
1!
1<
1#
b10 :
b10110111 9
b10110111 D
17
1B
#120000
0!
0<
0#
#125000
1!
1<
1#
1C
18
07
17
b11 ;
#130000
0!
0<
0#
#135000
1!
1<
1#
b11 :
0C
08
07
b0 ;
0B
#140000
0!
0<
0#
#145000
1!
1<
1#
b0 :
b0 9
b0 D
1&
1?
#150000
0!
0<
0#
#155000
1!
1<
1#
1>
b10010001 @
b1101001 A
16
04
02
11
0-
0+
0(
1'
1%
0&
1&
b1 ;
#160000
0!
0<
0#
#165000
1!
1<
1#
b1 :
0>
0%
0&
b10 ;
0?
#170000
0!
0<
0#
#175000
1!
1<
1#
b10 :
b11111010 9
b11111010 D
17
1B
#180000
0!
0<
0#
#185000
1!
1<
1#
1C
18
07
17
b11 ;
#190000
0!
0<
0#
#195000
1!
1<
1#
b11 :
0C
08
07
b0 ;
0B
#200000
0!
0<
0#
#205000
1!
1<
1#
b0 :
b0 9
b0 D
1&
1?
#210000
0!
0<
0#
#215000
1!
1<
1#
1>
b10000 @
b10001010 A
06
15
01
00
1/
0.
0'
1%
0&
1&
b1 ;
#220000
0!
0<
0#
#225000
1!
1<
1#
b1 :
0>
0%
0&
b10 ;
0?
#230000
0!
0<
0#
#235000
1!
1<
1#
b10 :
b10011010 9
b10011010 D
17
1B
#240000
0!
0<
0#
#245000
1!
1<
1#
1C
18
07
17
b11 ;
#250000
0!
0<
0#
#255000
1!
1<
1#
b11 :
0C
08
07
b0 ;
0B
#260000
0!
0<
0#
#265000
1!
1<
1#
b0 :
b0 9
b0 D
1&
1?
#270000
0!
0<
0#
#275000
1!
1<
1#
1>
b11111110 @
b0 A
05
03
0/
1-
1,
1+
1)
1(
1'
1%
0&
1&
b1 ;
#280000
0!
0<
0#
#285000
1!
1<
1#
b1 :
0>
0%
0&
b10 ;
0?
#290000
0!
0<
0#
#295000
1!
1<
1#
b10 :
b11111110 9
b11111110 D
17
1B
#300000
0!
0<
0#
#305000
1!
1<
1#
1C
18
07
17
b11 ;
#310000
0!
0<
0#
#315000
1!
1<
1#
b11 :
0C
08
07
b0 ;
0B
